"oid"	"id"	"name"	"fromDate"	"toDate"	"text"	"state"	"potential"	"probability"	"legalEntity"	"tags"
"600"	"CSS-2020"	"CSS Agile Scrum 2020"	"2020-09-01"	"2021-06-30"	"CSS Acquisition for technical excellence and agile approaches in the context of the Java stack."	"PROSPECT"	"50000"	"0.1"	"105"	""
"601"	"SGF-2020"	"SGF Agile Coaching Extension-1"	"2020-09-01"	"2020-12-31"	"SGF acquisition for middle management and line management agile coaching"	"PROSPECT"	"5000"	"0.4"	"106"	""
